AFPProtonContainer
AFPProtonContainerAux.
AFPSiHitsClusterContainer
AFPSiHitsClusterContainerAux.
AFPToFTrackContainer
AFPToFTrackContainerAux.
AFPTrackContainer
AFPTrackContainerAux.
AFPVertexContainer
AFPVertexContainerAux.
AllCalo
BunchId
CaloCalFwdTopoTowers
CaloCalFwdTopoTowersAux.
CaloCalFwdTopoTowersAuxDyn.ENG_FRAC_EM
CaloCalFwdTopoTowersAuxDyn.LONGITUDINAL
CaloCalFwdTopoTowersAuxDyn.SIGNIFICANCE
CaloCalTopoClusters
CaloCalTopoClustersAux.
CaloCalTopoClustersAuxDyn.AVG_LAR_Q
CaloCalTopoClustersAuxDyn.AVG_TILE_Q
CaloCalTopoClustersAuxDyn.BADLARQ_FRAC
CaloCalTopoClustersAuxDyn.BadChannelList
CaloCalTopoClustersAuxDyn.CELL_SIGNIFICANCE
CaloCalTopoClustersAuxDyn.CENTER_LAMBDA
CaloCalTopoClustersAuxDyn.CENTER_MAG
CaloCalTopoClustersAuxDyn.CellLink
CaloCalTopoClustersAuxDyn.EM_PROBABILITY
CaloCalTopoClustersAuxDyn.ENG_BAD_CELLS
CaloCalTopoClustersAuxDyn.ENG_FRAC_MAX
CaloCalTopoClustersAuxDyn.ENG_POS
CaloCalTopoClustersAuxDyn.FIRST_ENG_DENS
CaloCalTopoClustersAuxDyn.ISOLATION
CaloCalTopoClustersAuxDyn.LATERAL
CaloCalTopoClustersAuxDyn.LONGITUDINAL
CaloCalTopoClustersAuxDyn.MASS
CaloCalTopoClustersAuxDyn.NCELL_SAMPLING
CaloCalTopoClustersAuxDyn.N_BAD_CELLS
CaloCalTopoClustersAuxDyn.PTD
CaloCalTopoClustersAuxDyn.SECOND_LAMBDA
CaloCalTopoClustersAuxDyn.SECOND_R
CaloCalTopoClustersAuxDyn.SECOND_TIME
CaloCalTopoClustersAuxDyn.SIGNIFICANCE
CaloCalTopoClusters_links
CombinedMuonTrackParticles
CombinedMuonTrackParticlesAux.
CombinedMuonTrackParticlesAuxDyn.TRTdEdx
CombinedMuonTrackParticlesAuxDyn.TRTdEdxUsedHits
CombinedMuonTrackParticlesAuxDyn.alignEffectChId
CombinedMuonTrackParticlesAuxDyn.alignEffectDeltaAngle
CombinedMuonTrackParticlesAuxDyn.alignEffectDeltaTrans
CombinedMuonTrackParticlesAuxDyn.alignEffectSigmaDeltaAngle
CombinedMuonTrackParticlesAuxDyn.alignEffectSigmaDeltaTrans
CombinedMuonTrackParticlesAuxDyn.deltaphi_0
CombinedMuonTrackParticlesAuxDyn.deltaphi_1
CombinedMuonTrackParticlesAuxDyn.deltatheta_0
CombinedMuonTrackParticlesAuxDyn.deltatheta_1
CombinedMuonTrackParticlesAuxDyn.eProbabilityNN
CombinedMuonTrackParticlesAuxDyn.parameterPX
CombinedMuonTrackParticlesAuxDyn.parameterPY
CombinedMuonTrackParticlesAuxDyn.parameterPZ
CombinedMuonTrackParticlesAuxDyn.parameterPosition
CombinedMuonTrackParticlesAuxDyn.parameterX
CombinedMuonTrackParticlesAuxDyn.parameterY
CombinedMuonTrackParticlesAuxDyn.parameterZ
CombinedMuonTrackParticlesAuxDyn.sigmadeltaphi_0
CombinedMuonTrackParticlesAuxDyn.sigmadeltaphi_1
CombinedMuonTrackParticlesAuxDyn.sigmadeltatheta_0
CombinedMuonTrackParticlesAuxDyn.sigmadeltatheta_1
CombinedMuonTrackParticlesAuxDyn.trackLink
CombinedMuonTrackParticlesAuxDyn.trackParameterCovarianceMatrices
CombinedMuonTrackParticlesAuxDyn.truthOrigin
CombinedMuonTrackParticlesAuxDyn.truthParticleLink
CombinedMuonTrackParticlesAuxDyn.truthType
CombinedMuonsLRTTrackParticles
CombinedMuonsLRTTrackParticlesAux.
CombinedMuonsLRTTrackParticlesAuxDyn.TRTdEdx
CombinedMuonsLRTTrackParticlesAuxDyn.TRTdEdxUsedHits
CombinedMuonsLRTTrackParticlesAuxDyn.alignEffectChId
CombinedMuonsLRTTrackParticlesAuxDyn.alignEffectDeltaAngle
CombinedMuonsLRTTrackParticlesAuxDyn.alignEffectDeltaTrans
CombinedMuonsLRTTrackParticlesAuxDyn.alignEffectSigmaDeltaAngle
CombinedMuonsLRTTrackParticlesAuxDyn.alignEffectSigmaDeltaTrans
CombinedMuonsLRTTrackParticlesAuxDyn.deltaphi_0
CombinedMuonsLRTTrackParticlesAuxDyn.deltaphi_1
CombinedMuonsLRTTrackParticlesAuxDyn.deltatheta_0
CombinedMuonsLRTTrackParticlesAuxDyn.deltatheta_1
CombinedMuonsLRTTrackParticlesAuxDyn.eProbabilityNN
CombinedMuonsLRTTrackParticlesAuxDyn.parameterPX
CombinedMuonsLRTTrackParticlesAuxDyn.parameterPY
CombinedMuonsLRTTrackParticlesAuxDyn.parameterPZ
CombinedMuonsLRTTrackParticlesAuxDyn.parameterPosition
CombinedMuonsLRTTrackParticlesAuxDyn.parameterX
CombinedMuonsLRTTrackParticlesAuxDyn.parameterY
CombinedMuonsLRTTrackParticlesAuxDyn.parameterZ
CombinedMuonsLRTTrackParticlesAuxDyn.sigmadeltaphi_0
CombinedMuonsLRTTrackParticlesAuxDyn.sigmadeltaphi_1
CombinedMuonsLRTTrackParticlesAuxDyn.sigmadeltatheta_0
CombinedMuonsLRTTrackParticlesAuxDyn.sigmadeltatheta_1
CombinedMuonsLRTTrackParticlesAuxDyn.trackLink
CombinedMuonsLRTTrackParticlesAuxDyn.trackParameterCovarianceMatrices
CombinedMuonsLRTTrackParticlesAuxDyn.truthOrigin
CombinedMuonsLRTTrackParticlesAuxDyn.truthParticleLink
CombinedMuonsLRTTrackParticlesAuxDyn.truthType
CombinedStauTrackParticles
CombinedStauTrackParticlesAux.
CombinedStauTrackParticlesAuxDyn.TRTdEdx
CombinedStauTrackParticlesAuxDyn.TRTdEdxUsedHits
CombinedStauTrackParticlesAuxDyn.alignEffectChId
CombinedStauTrackParticlesAuxDyn.alignEffectDeltaAngle
CombinedStauTrackParticlesAuxDyn.alignEffectDeltaTrans
CombinedStauTrackParticlesAuxDyn.alignEffectSigmaDeltaAngle
CombinedStauTrackParticlesAuxDyn.alignEffectSigmaDeltaTrans
CombinedStauTrackParticlesAuxDyn.deltaphi_0
CombinedStauTrackParticlesAuxDyn.deltaphi_1
CombinedStauTrackParticlesAuxDyn.deltatheta_0
CombinedStauTrackParticlesAuxDyn.deltatheta_1
CombinedStauTrackParticlesAuxDyn.eProbabilityNN
CombinedStauTrackParticlesAuxDyn.parameterPX
CombinedStauTrackParticlesAuxDyn.parameterPY
CombinedStauTrackParticlesAuxDyn.parameterPZ
CombinedStauTrackParticlesAuxDyn.parameterPosition
CombinedStauTrackParticlesAuxDyn.parameterX
CombinedStauTrackParticlesAuxDyn.parameterY
CombinedStauTrackParticlesAuxDyn.parameterZ
CombinedStauTrackParticlesAuxDyn.sigmadeltaphi_0
CombinedStauTrackParticlesAuxDyn.sigmadeltaphi_1
CombinedStauTrackParticlesAuxDyn.sigmadeltatheta_0
CombinedStauTrackParticlesAuxDyn.sigmadeltatheta_1
CombinedStauTrackParticlesAuxDyn.trackLink
CombinedStauTrackParticlesAuxDyn.trackParameterCovarianceMatrices
CombinedStauTrackParticlesAuxDyn.truthOrigin
CombinedStauTrackParticlesAuxDyn.truthParticleLink
CombinedStauTrackParticlesAuxDyn.truthType
ConditionsRun
CutBookkeepers
CutBookkeepersAux.
CutBookkeepers_weight_1
CutBookkeepers_weight_10
CutBookkeepers_weight_100
CutBookkeepers_weight_100Aux.
CutBookkeepers_weight_101
CutBookkeepers_weight_101Aux.
CutBookkeepers_weight_102
CutBookkeepers_weight_102Aux.
CutBookkeepers_weight_103
CutBookkeepers_weight_103Aux.
CutBookkeepers_weight_104
CutBookkeepers_weight_104Aux.
CutBookkeepers_weight_105
CutBookkeepers_weight_105Aux.
CutBookkeepers_weight_106
CutBookkeepers_weight_106Aux.
CutBookkeepers_weight_107
CutBookkeepers_weight_107Aux.
CutBookkeepers_weight_108
CutBookkeepers_weight_108Aux.
CutBookkeepers_weight_109
CutBookkeepers_weight_109Aux.
CutBookkeepers_weight_10Aux.
CutBookkeepers_weight_11
CutBookkeepers_weight_110
CutBookkeepers_weight_110Aux.
CutBookkeepers_weight_111
CutBookkeepers_weight_111Aux.
CutBookkeepers_weight_112
CutBookkeepers_weight_112Aux.
CutBookkeepers_weight_113
CutBookkeepers_weight_113Aux.
CutBookkeepers_weight_114
CutBookkeepers_weight_114Aux.
CutBookkeepers_weight_115
CutBookkeepers_weight_115Aux.
CutBookkeepers_weight_116
CutBookkeepers_weight_116Aux.
CutBookkeepers_weight_117
CutBookkeepers_weight_117Aux.
CutBookkeepers_weight_118
CutBookkeepers_weight_118Aux.
CutBookkeepers_weight_119
CutBookkeepers_weight_119Aux.
CutBookkeepers_weight_11Aux.
CutBookkeepers_weight_12
CutBookkeepers_weight_120
CutBookkeepers_weight_120Aux.
CutBookkeepers_weight_121
CutBookkeepers_weight_121Aux.
CutBookkeepers_weight_122
CutBookkeepers_weight_122Aux.
CutBookkeepers_weight_123
CutBookkeepers_weight_123Aux.
CutBookkeepers_weight_124
CutBookkeepers_weight_124Aux.
CutBookkeepers_weight_125
CutBookkeepers_weight_125Aux.
CutBookkeepers_weight_126
CutBookkeepers_weight_126Aux.
CutBookkeepers_weight_127
CutBookkeepers_weight_127Aux.
CutBookkeepers_weight_128
CutBookkeepers_weight_128Aux.
CutBookkeepers_weight_129
CutBookkeepers_weight_129Aux.
CutBookkeepers_weight_12Aux.
CutBookkeepers_weight_13
CutBookkeepers_weight_130
CutBookkeepers_weight_130Aux.
CutBookkeepers_weight_131
CutBookkeepers_weight_131Aux.
CutBookkeepers_weight_132
CutBookkeepers_weight_132Aux.
CutBookkeepers_weight_133
CutBookkeepers_weight_133Aux.
CutBookkeepers_weight_134
CutBookkeepers_weight_134Aux.
CutBookkeepers_weight_135
CutBookkeepers_weight_135Aux.
CutBookkeepers_weight_136
CutBookkeepers_weight_136Aux.
CutBookkeepers_weight_137
CutBookkeepers_weight_137Aux.
CutBookkeepers_weight_138
CutBookkeepers_weight_138Aux.
CutBookkeepers_weight_139
CutBookkeepers_weight_139Aux.
CutBookkeepers_weight_13Aux.
CutBookkeepers_weight_14
CutBookkeepers_weight_140
CutBookkeepers_weight_140Aux.
CutBookkeepers_weight_141
CutBookkeepers_weight_141Aux.
CutBookkeepers_weight_142
CutBookkeepers_weight_142Aux.
CutBookkeepers_weight_143
CutBookkeepers_weight_143Aux.
CutBookkeepers_weight_144
CutBookkeepers_weight_144Aux.
CutBookkeepers_weight_145
CutBookkeepers_weight_145Aux.
CutBookkeepers_weight_146
CutBookkeepers_weight_146Aux.
CutBookkeepers_weight_147
CutBookkeepers_weight_147Aux.
CutBookkeepers_weight_148
CutBookkeepers_weight_148Aux.
CutBookkeepers_weight_149
CutBookkeepers_weight_149Aux.
CutBookkeepers_weight_14Aux.
CutBookkeepers_weight_15
CutBookkeepers_weight_150
CutBookkeepers_weight_150Aux.
CutBookkeepers_weight_151
CutBookkeepers_weight_151Aux.
CutBookkeepers_weight_152
CutBookkeepers_weight_152Aux.
CutBookkeepers_weight_153
CutBookkeepers_weight_153Aux.
CutBookkeepers_weight_154
CutBookkeepers_weight_154Aux.
CutBookkeepers_weight_155
CutBookkeepers_weight_155Aux.
CutBookkeepers_weight_156
CutBookkeepers_weight_156Aux.
CutBookkeepers_weight_157
CutBookkeepers_weight_157Aux.
CutBookkeepers_weight_158
CutBookkeepers_weight_158Aux.
CutBookkeepers_weight_159
CutBookkeepers_weight_159Aux.
CutBookkeepers_weight_15Aux.
CutBookkeepers_weight_16
CutBookkeepers_weight_160
CutBookkeepers_weight_160Aux.
CutBookkeepers_weight_161
CutBookkeepers_weight_161Aux.
CutBookkeepers_weight_162
CutBookkeepers_weight_162Aux.
CutBookkeepers_weight_163
CutBookkeepers_weight_163Aux.
CutBookkeepers_weight_164
CutBookkeepers_weight_164Aux.
CutBookkeepers_weight_165
CutBookkeepers_weight_165Aux.
CutBookkeepers_weight_166
CutBookkeepers_weight_166Aux.
CutBookkeepers_weight_167
CutBookkeepers_weight_167Aux.
CutBookkeepers_weight_168
CutBookkeepers_weight_168Aux.
CutBookkeepers_weight_169
CutBookkeepers_weight_169Aux.
CutBookkeepers_weight_16Aux.
CutBookkeepers_weight_17
CutBookkeepers_weight_170
CutBookkeepers_weight_170Aux.
CutBookkeepers_weight_171
CutBookkeepers_weight_171Aux.
CutBookkeepers_weight_172
CutBookkeepers_weight_172Aux.
CutBookkeepers_weight_173
CutBookkeepers_weight_173Aux.
CutBookkeepers_weight_174
CutBookkeepers_weight_174Aux.
CutBookkeepers_weight_175
CutBookkeepers_weight_175Aux.
CutBookkeepers_weight_176
CutBookkeepers_weight_176Aux.
CutBookkeepers_weight_177
CutBookkeepers_weight_177Aux.
CutBookkeepers_weight_178
CutBookkeepers_weight_178Aux.
CutBookkeepers_weight_179
CutBookkeepers_weight_179Aux.
CutBookkeepers_weight_17Aux.
CutBookkeepers_weight_18
CutBookkeepers_weight_180
CutBookkeepers_weight_180Aux.
CutBookkeepers_weight_181
CutBookkeepers_weight_181Aux.
CutBookkeepers_weight_182
CutBookkeepers_weight_182Aux.
CutBookkeepers_weight_183
CutBookkeepers_weight_183Aux.
CutBookkeepers_weight_184
CutBookkeepers_weight_184Aux.
CutBookkeepers_weight_185
CutBookkeepers_weight_185Aux.
CutBookkeepers_weight_186
CutBookkeepers_weight_186Aux.
CutBookkeepers_weight_187
CutBookkeepers_weight_187Aux.
CutBookkeepers_weight_188
CutBookkeepers_weight_188Aux.
CutBookkeepers_weight_189
CutBookkeepers_weight_189Aux.
CutBookkeepers_weight_18Aux.
CutBookkeepers_weight_19
CutBookkeepers_weight_190
CutBookkeepers_weight_190Aux.
CutBookkeepers_weight_191
CutBookkeepers_weight_191Aux.
CutBookkeepers_weight_192
CutBookkeepers_weight_192Aux.
CutBookkeepers_weight_193
CutBookkeepers_weight_193Aux.
CutBookkeepers_weight_194
CutBookkeepers_weight_194Aux.
CutBookkeepers_weight_195
CutBookkeepers_weight_195Aux.
CutBookkeepers_weight_196
CutBookkeepers_weight_196Aux.
CutBookkeepers_weight_197
CutBookkeepers_weight_197Aux.
CutBookkeepers_weight_198
CutBookkeepers_weight_198Aux.
CutBookkeepers_weight_199
CutBookkeepers_weight_199Aux.
CutBookkeepers_weight_19Aux.
CutBookkeepers_weight_1Aux.
CutBookkeepers_weight_2
CutBookkeepers_weight_20
CutBookkeepers_weight_200
CutBookkeepers_weight_200Aux.
CutBookkeepers_weight_201
CutBookkeepers_weight_201Aux.
CutBookkeepers_weight_202
CutBookkeepers_weight_202Aux.
CutBookkeepers_weight_203
CutBookkeepers_weight_203Aux.
CutBookkeepers_weight_204
CutBookkeepers_weight_204Aux.
CutBookkeepers_weight_205
CutBookkeepers_weight_205Aux.
CutBookkeepers_weight_206
CutBookkeepers_weight_206Aux.
CutBookkeepers_weight_207
CutBookkeepers_weight_207Aux.
CutBookkeepers_weight_208
CutBookkeepers_weight_208Aux.
CutBookkeepers_weight_209
CutBookkeepers_weight_209Aux.
CutBookkeepers_weight_20Aux.
CutBookkeepers_weight_21
CutBookkeepers_weight_210
CutBookkeepers_weight_210Aux.
CutBookkeepers_weight_211
CutBookkeepers_weight_211Aux.
CutBookkeepers_weight_212
CutBookkeepers_weight_212Aux.
CutBookkeepers_weight_213
CutBookkeepers_weight_213Aux.
CutBookkeepers_weight_214
CutBookkeepers_weight_214Aux.
CutBookkeepers_weight_215
CutBookkeepers_weight_215Aux.
CutBookkeepers_weight_216
CutBookkeepers_weight_216Aux.
CutBookkeepers_weight_21Aux.
CutBookkeepers_weight_22
CutBookkeepers_weight_22Aux.
CutBookkeepers_weight_23
CutBookkeepers_weight_23Aux.
CutBookkeepers_weight_24
CutBookkeepers_weight_24Aux.
CutBookkeepers_weight_25
CutBookkeepers_weight_25Aux.
CutBookkeepers_weight_26
CutBookkeepers_weight_26Aux.
CutBookkeepers_weight_27
CutBookkeepers_weight_27Aux.
CutBookkeepers_weight_28
CutBookkeepers_weight_28Aux.
CutBookkeepers_weight_29
CutBookkeepers_weight_29Aux.
CutBookkeepers_weight_2Aux.
CutBookkeepers_weight_3
CutBookkeepers_weight_30
CutBookkeepers_weight_30Aux.
CutBookkeepers_weight_31
CutBookkeepers_weight_31Aux.
CutBookkeepers_weight_32
CutBookkeepers_weight_32Aux.
CutBookkeepers_weight_33
CutBookkeepers_weight_33Aux.
CutBookkeepers_weight_34
CutBookkeepers_weight_34Aux.
CutBookkeepers_weight_35
CutBookkeepers_weight_35Aux.
CutBookkeepers_weight_36
CutBookkeepers_weight_36Aux.
CutBookkeepers_weight_37
CutBookkeepers_weight_37Aux.
CutBookkeepers_weight_38
CutBookkeepers_weight_38Aux.
CutBookkeepers_weight_39
CutBookkeepers_weight_39Aux.
CutBookkeepers_weight_3Aux.
CutBookkeepers_weight_4
CutBookkeepers_weight_40
CutBookkeepers_weight_40Aux.
CutBookkeepers_weight_41
CutBookkeepers_weight_41Aux.
CutBookkeepers_weight_42
CutBookkeepers_weight_42Aux.
CutBookkeepers_weight_43
CutBookkeepers_weight_43Aux.
CutBookkeepers_weight_44
CutBookkeepers_weight_44Aux.
CutBookkeepers_weight_45
CutBookkeepers_weight_45Aux.
CutBookkeepers_weight_46
CutBookkeepers_weight_46Aux.
CutBookkeepers_weight_47
CutBookkeepers_weight_47Aux.
CutBookkeepers_weight_48
CutBookkeepers_weight_48Aux.
CutBookkeepers_weight_49
CutBookkeepers_weight_49Aux.
CutBookkeepers_weight_4Aux.
CutBookkeepers_weight_5
CutBookkeepers_weight_50
CutBookkeepers_weight_50Aux.
CutBookkeepers_weight_51
CutBookkeepers_weight_51Aux.
CutBookkeepers_weight_52
CutBookkeepers_weight_52Aux.
CutBookkeepers_weight_53
CutBookkeepers_weight_53Aux.
CutBookkeepers_weight_54
CutBookkeepers_weight_54Aux.
CutBookkeepers_weight_55
CutBookkeepers_weight_55Aux.
CutBookkeepers_weight_56
CutBookkeepers_weight_56Aux.
CutBookkeepers_weight_57
CutBookkeepers_weight_57Aux.
CutBookkeepers_weight_58
CutBookkeepers_weight_58Aux.
CutBookkeepers_weight_59
CutBookkeepers_weight_59Aux.
CutBookkeepers_weight_5Aux.
CutBookkeepers_weight_6
CutBookkeepers_weight_60
CutBookkeepers_weight_60Aux.
CutBookkeepers_weight_61
CutBookkeepers_weight_61Aux.
CutBookkeepers_weight_62
CutBookkeepers_weight_62Aux.
CutBookkeepers_weight_63
CutBookkeepers_weight_63Aux.
CutBookkeepers_weight_64
CutBookkeepers_weight_64Aux.
CutBookkeepers_weight_65
CutBookkeepers_weight_65Aux.
CutBookkeepers_weight_66
CutBookkeepers_weight_66Aux.
CutBookkeepers_weight_67
CutBookkeepers_weight_67Aux.
CutBookkeepers_weight_68
CutBookkeepers_weight_68Aux.
CutBookkeepers_weight_69
CutBookkeepers_weight_69Aux.
CutBookkeepers_weight_6Aux.
CutBookkeepers_weight_7
CutBookkeepers_weight_70
CutBookkeepers_weight_70Aux.
CutBookkeepers_weight_71
CutBookkeepers_weight_71Aux.
CutBookkeepers_weight_72
CutBookkeepers_weight_72Aux.
CutBookkeepers_weight_73
CutBookkeepers_weight_73Aux.
CutBookkeepers_weight_74
CutBookkeepers_weight_74Aux.
CutBookkeepers_weight_75
CutBookkeepers_weight_75Aux.
CutBookkeepers_weight_76
CutBookkeepers_weight_76Aux.
CutBookkeepers_weight_77
CutBookkeepers_weight_77Aux.
CutBookkeepers_weight_78
CutBookkeepers_weight_78Aux.
CutBookkeepers_weight_79
CutBookkeepers_weight_79Aux.
CutBookkeepers_weight_7Aux.
CutBookkeepers_weight_8
CutBookkeepers_weight_80
CutBookkeepers_weight_80Aux.
CutBookkeepers_weight_81
CutBookkeepers_weight_81Aux.
CutBookkeepers_weight_82
CutBookkeepers_weight_82Aux.
CutBookkeepers_weight_83
CutBookkeepers_weight_83Aux.
CutBookkeepers_weight_84
CutBookkeepers_weight_84Aux.
CutBookkeepers_weight_85
CutBookkeepers_weight_85Aux.
CutBookkeepers_weight_86
CutBookkeepers_weight_86Aux.
CutBookkeepers_weight_87
CutBookkeepers_weight_87Aux.
CutBookkeepers_weight_88
CutBookkeepers_weight_88Aux.
CutBookkeepers_weight_89
CutBookkeepers_weight_89Aux.
CutBookkeepers_weight_8Aux.
CutBookkeepers_weight_9
CutBookkeepers_weight_90
CutBookkeepers_weight_90Aux.
CutBookkeepers_weight_91
CutBookkeepers_weight_91Aux.
CutBookkeepers_weight_92
CutBookkeepers_weight_92Aux.
CutBookkeepers_weight_93
CutBookkeepers_weight_93Aux.
CutBookkeepers_weight_94
CutBookkeepers_weight_94Aux.
CutBookkeepers_weight_95
CutBookkeepers_weight_95Aux.
CutBookkeepers_weight_96
CutBookkeepers_weight_96Aux.
CutBookkeepers_weight_97
CutBookkeepers_weight_97Aux.
CutBookkeepers_weight_98
CutBookkeepers_weight_98Aux.
CutBookkeepers_weight_99
CutBookkeepers_weight_99Aux.
CutBookkeepers_weight_9Aux.
DataHeader
DataHeaderForm
DiTauJets
DiTauJetsAux.
E4prContainer
ElectronCaloRings
ElectronCaloRingsAux.
ElectronRingSets
ElectronRingSetsAux.
Electrons
ElectronsAux.
ElectronsAuxDyn.LHLoose
ElectronsAuxDyn.LHMedium
ElectronsAuxDyn.LHTight
ElectronsAuxDyn.LHValue
ElectronsAuxDyn.Loose
ElectronsAuxDyn.Medium
ElectronsAuxDyn.Tight
ElectronsAuxDyn.ambiguityLink
ElectronsAuxDyn.ambiguityType
ElectronsAuxDyn.asy1
ElectronsAuxDyn.barys1
ElectronsAuxDyn.caloRingsLinks
ElectronsAuxDyn.chargedFELinks
ElectronsAuxDyn.core57cellsEnergyCorrection
ElectronsAuxDyn.deltaEta1PearDistortion
ElectronsAuxDyn.e1152
ElectronsAuxDyn.e132
ElectronsAuxDyn.e233
ElectronsAuxDyn.e235
ElectronsAuxDyn.e237
ElectronsAuxDyn.e255
ElectronsAuxDyn.e2ts1
ElectronsAuxDyn.e2tsts1
ElectronsAuxDyn.ecore
ElectronsAuxDyn.ehad1
ElectronsAuxDyn.emaxs1
ElectronsAuxDyn.emins1
ElectronsAuxDyn.ethad
ElectronsAuxDyn.ethad1
ElectronsAuxDyn.neutralFELinks
ElectronsAuxDyn.pos
ElectronsAuxDyn.pos7
ElectronsAuxDyn.poscs1
ElectronsAuxDyn.poscs2
ElectronsAuxDyn.ptcone20
ElectronsAuxDyn.ptcone30
ElectronsAuxDyn.ptvarcone20
ElectronsAuxDyn.ptvarcone30
ElectronsAuxDyn.r33over37allcalo
ElectronsAuxDyn.topoetcone20
ElectronsAuxDyn.topoetcone20ptCorrection
ElectronsAuxDyn.topoetcone30
ElectronsAuxDyn.topoetcone30ptCorrection
ElectronsAuxDyn.topoetcone40
ElectronsAuxDyn.topoetcone40ptCorrection
ElectronsAuxDyn.truthOrigin
ElectronsAuxDyn.truthParticleLink
ElectronsAuxDyn.truthType
ElectronsAuxDyn.widths1
ElectronsAuxDyn.widths2
EventFormatStreamAOD
EventInfo
EventInfoAux.
EventInfoAuxDyn.actualInteractionsPerCrossing
EventInfoAuxDyn.averageInteractionsPerCrossing
EventInfoAuxDyn.beamPosSigmaX
EventInfoAuxDyn.beamPosSigmaXY
EventInfoAuxDyn.beamPosSigmaY
EventInfoAuxDyn.beamPosSigmaZ
EventInfoAuxDyn.beamPosX
EventInfoAuxDyn.beamPosY
EventInfoAuxDyn.beamPosZ
EventInfoAuxDyn.beamSpotWeight
EventInfoAuxDyn.beamStatus
EventInfoAuxDyn.beamTiltXZ
EventInfoAuxDyn.beamTiltYZ
EventInfoAuxDyn.mcChannelNumber
EventInfoAuxDyn.mcEventNumber
EventInfoAuxDyn.mcEventWeights
EventInfoAuxDyn.streamTagDets
EventInfoAuxDyn.streamTagRobs
EventNumber
EventTime
EventTimeNanoSec
EventWeight
ExtraPolatedMuonsLRTTrackParticles
ExtraPolatedMuonsLRTTrackParticlesAux.
ExtraPolatedMuonsLRTTrackParticlesAuxDyn.TRTdEdx
ExtraPolatedMuonsLRTTrackParticlesAuxDyn.TRTdEdxUsedHits
ExtraPolatedMuonsLRTTrackParticlesAuxDyn.alignEffectChId
ExtraPolatedMuonsLRTTrackParticlesAuxDyn.alignEffectDeltaAngle
ExtraPolatedMuonsLRTTrackParticlesAuxDyn.alignEffectDeltaTrans
ExtraPolatedMuonsLRTTrackParticlesAuxDyn.alignEffectSigmaDeltaAngle
ExtraPolatedMuonsLRTTrackParticlesAuxDyn.alignEffectSigmaDeltaTrans
ExtraPolatedMuonsLRTTrackParticlesAuxDyn.deltaphi_0
ExtraPolatedMuonsLRTTrackParticlesAuxDyn.deltaphi_1
ExtraPolatedMuonsLRTTrackParticlesAuxDyn.deltatheta_0
ExtraPolatedMuonsLRTTrackParticlesAuxDyn.deltatheta_1
ExtraPolatedMuonsLRTTrackParticlesAuxDyn.eProbabilityNN
ExtraPolatedMuonsLRTTrackParticlesAuxDyn.parameterPX
ExtraPolatedMuonsLRTTrackParticlesAuxDyn.parameterPY
ExtraPolatedMuonsLRTTrackParticlesAuxDyn.parameterPZ
ExtraPolatedMuonsLRTTrackParticlesAuxDyn.parameterPosition
ExtraPolatedMuonsLRTTrackParticlesAuxDyn.parameterX
ExtraPolatedMuonsLRTTrackParticlesAuxDyn.parameterY
ExtraPolatedMuonsLRTTrackParticlesAuxDyn.parameterZ
ExtraPolatedMuonsLRTTrackParticlesAuxDyn.sigmadeltaphi_0
ExtraPolatedMuonsLRTTrackParticlesAuxDyn.sigmadeltaphi_1
ExtraPolatedMuonsLRTTrackParticlesAuxDyn.sigmadeltatheta_0
ExtraPolatedMuonsLRTTrackParticlesAuxDyn.sigmadeltatheta_1
ExtraPolatedMuonsLRTTrackParticlesAuxDyn.trackLink
ExtraPolatedMuonsLRTTrackParticlesAuxDyn.trackParameterCovarianceMatrices
ExtraPolatedMuonsLRTTrackParticlesAuxDyn.truthOrigin
ExtraPolatedMuonsLRTTrackParticlesAuxDyn.truthParticleLink
ExtraPolatedMuonsLRTTrackParticlesAuxDyn.truthType
ExtrapolatedMuonTrackParticles
ExtrapolatedMuonTrackParticlesAux.
ExtrapolatedMuonTrackParticlesAuxDyn.TRTdEdx
ExtrapolatedMuonTrackParticlesAuxDyn.TRTdEdxUsedHits
ExtrapolatedMuonTrackParticlesAuxDyn.alignEffectChId
ExtrapolatedMuonTrackParticlesAuxDyn.alignEffectDeltaAngle
ExtrapolatedMuonTrackParticlesAuxDyn.alignEffectDeltaTrans
ExtrapolatedMuonTrackParticlesAuxDyn.alignEffectSigmaDeltaAngle
ExtrapolatedMuonTrackParticlesAuxDyn.alignEffectSigmaDeltaTrans
ExtrapolatedMuonTrackParticlesAuxDyn.deltaphi_0
ExtrapolatedMuonTrackParticlesAuxDyn.deltaphi_1
ExtrapolatedMuonTrackParticlesAuxDyn.deltatheta_0
ExtrapolatedMuonTrackParticlesAuxDyn.deltatheta_1
ExtrapolatedMuonTrackParticlesAuxDyn.eProbabilityNN
ExtrapolatedMuonTrackParticlesAuxDyn.parameterPX
ExtrapolatedMuonTrackParticlesAuxDyn.parameterPY
ExtrapolatedMuonTrackParticlesAuxDyn.parameterPZ
ExtrapolatedMuonTrackParticlesAuxDyn.parameterPosition
ExtrapolatedMuonTrackParticlesAuxDyn.parameterX
ExtrapolatedMuonTrackParticlesAuxDyn.parameterY
ExtrapolatedMuonTrackParticlesAuxDyn.parameterZ
ExtrapolatedMuonTrackParticlesAuxDyn.sigmadeltaphi_0
ExtrapolatedMuonTrackParticlesAuxDyn.sigmadeltaphi_1
ExtrapolatedMuonTrackParticlesAuxDyn.sigmadeltatheta_0
ExtrapolatedMuonTrackParticlesAuxDyn.sigmadeltatheta_1
ExtrapolatedMuonTrackParticlesAuxDyn.trackLink
ExtrapolatedMuonTrackParticlesAuxDyn.trackParameterCovarianceMatrices
ExtrapolatedMuonTrackParticlesAuxDyn.truthOrigin
ExtrapolatedMuonTrackParticlesAuxDyn.truthParticleLink
ExtrapolatedMuonTrackParticlesAuxDyn.truthType
ExtrapolatedStauTrackParticles
ExtrapolatedStauTrackParticlesAux.
FileMetaData
FileMetaDataAux.
FileMetaDataAuxDyn.amiTag
FileMetaDataAuxDyn.beamEnergy
FileMetaDataAuxDyn.beamType
FileMetaDataAuxDyn.conditionsTag
FileMetaDataAuxDyn.generatorsInfo
FileMetaDataAuxDyn.geometryVersion
FileMetaDataAuxDyn.isDataOverlay
FileMetaDataAuxDyn.mcCampaign
FileMetaDataAuxDyn.mcProcID
FileMetaDataAuxDyn.simFlavour
ForwardElectronClusters
ForwardElectronClustersAux.
ForwardElectronClustersAuxDyn.AVG_LAR_Q
ForwardElectronClustersAuxDyn.AVG_TILE_Q
ForwardElectronClustersAuxDyn.BADLARQ_FRAC
ForwardElectronClustersAuxDyn.BAD_CELLS_CORR_E
ForwardElectronClustersAuxDyn.BadChannelList
ForwardElectronClustersAuxDyn.CELL_SIGNIFICANCE
ForwardElectronClustersAuxDyn.CELL_SIG_SAMPLING
ForwardElectronClustersAuxDyn.CENTER_LAMBDA
ForwardElectronClustersAuxDyn.CENTER_MAG
ForwardElectronClustersAuxDyn.CENTER_X
ForwardElectronClustersAuxDyn.CENTER_Y
ForwardElectronClustersAuxDyn.CENTER_Z
ForwardElectronClustersAuxDyn.CellLink
ForwardElectronClustersAuxDyn.DELTA_ALPHA
ForwardElectronClustersAuxDyn.DELTA_PHI
ForwardElectronClustersAuxDyn.DELTA_THETA
ForwardElectronClustersAuxDyn.DM_WEIGHT
ForwardElectronClustersAuxDyn.EM_PROBABILITY
ForwardElectronClustersAuxDyn.ENG_BAD_CELLS
ForwardElectronClustersAuxDyn.ENG_BAD_HV_CELLS
ForwardElectronClustersAuxDyn.ENG_FRAC_CORE
ForwardElectronClustersAuxDyn.ENG_FRAC_EM
ForwardElectronClustersAuxDyn.ENG_FRAC_MAX
ForwardElectronClustersAuxDyn.ENG_POS
ForwardElectronClustersAuxDyn.FIRST_ENG_DENS
ForwardElectronClustersAuxDyn.FIRST_ETA
ForwardElectronClustersAuxDyn.FIRST_PHI
ForwardElectronClustersAuxDyn.HAD_WEIGHT
ForwardElectronClustersAuxDyn.ISOLATION
ForwardElectronClustersAuxDyn.LATERAL
ForwardElectronClustersAuxDyn.LONGITUDINAL
ForwardElectronClustersAuxDyn.MASS
ForwardElectronClustersAuxDyn.NCELL_SAMPLING
ForwardElectronClustersAuxDyn.N_BAD_CELLS
ForwardElectronClustersAuxDyn.N_BAD_CELLS_CORR
ForwardElectronClustersAuxDyn.N_BAD_HV_CELLS
ForwardElectronClustersAuxDyn.OOC_WEIGHT
ForwardElectronClustersAuxDyn.PTD
ForwardElectronClustersAuxDyn.SECOND_ENG_DENS
ForwardElectronClustersAuxDyn.SECOND_LAMBDA
ForwardElectronClustersAuxDyn.SECOND_R
ForwardElectronClustersAuxDyn.SECOND_TIME
ForwardElectronClustersAuxDyn.SIGNIFICANCE
ForwardElectronClustersAuxDyn.constituentClusterLinks
ForwardElectronClustersAuxDyn.emax_sampl
ForwardElectronClustersAuxDyn.eta_sampl
ForwardElectronClustersAuxDyn.etamax_sampl
ForwardElectronClustersAuxDyn.phi_sampl
ForwardElectronClustersAuxDyn.phimax_sampl
ForwardElectronClusters_links
ForwardElectrons
ForwardElectronsAux.
ForwardElectronsAuxDyn.Loose
ForwardElectronsAuxDyn.Medium
ForwardElectronsAuxDyn.Tight
ForwardElectronsAuxDyn.truthOrigin
ForwardElectronsAuxDyn.truthParticleLink
ForwardElectronsAuxDyn.truthType
GSFConversionVertices
GSFConversionVerticesAux.
GSFConversionVerticesAuxDyn.DR1R2
GSFConversionVerticesAuxDyn.deltaCotThetaTrk
GSFConversionVerticesAuxDyn.deltaInitRadius
GSFConversionVerticesAuxDyn.deltaPhiTracks
GSFConversionVerticesAuxDyn.deltaPhiVtxTrk
GSFConversionVerticesAuxDyn.etaAtCalo
GSFConversionVerticesAuxDyn.mass
GSFConversionVerticesAuxDyn.minRfirstHit
GSFConversionVerticesAuxDyn.minimumDistanceTrk
GSFConversionVerticesAuxDyn.phiAtCalo
GSFConversionVerticesAuxDyn.pt1
GSFConversionVerticesAuxDyn.pt2
GSFConversionVerticesAuxDyn.px
GSFConversionVerticesAuxDyn.py
GSFConversionVerticesAuxDyn.pz
GSFTrackParticles
GSFTrackParticlesAux.
GSFTrackParticlesAuxDyn.QoverPLM
GSFTrackParticlesAuxDyn.TRTdEdx
GSFTrackParticlesAuxDyn.TRTdEdxUsedHits
GSFTrackParticlesAuxDyn.eProbabilityNN
GSFTrackParticlesAuxDyn.originalTrackParticle
GSFTrackParticlesAuxDyn.parameterPX
GSFTrackParticlesAuxDyn.parameterPY
GSFTrackParticlesAuxDyn.parameterPZ
GSFTrackParticlesAuxDyn.parameterPosition
GSFTrackParticlesAuxDyn.parameterX
GSFTrackParticlesAuxDyn.parameterY
GSFTrackParticlesAuxDyn.parameterZ
GSFTrackParticlesAuxDyn.trackLink
GSFTrackParticlesAuxDyn.trackParameterCovarianceMatrices
GSFTrackParticlesAuxDyn.truthMatchProbability
GSFTrackParticlesAuxDyn.truthOrigin
GSFTrackParticlesAuxDyn.truthParticleLink
GSFTrackParticlesAuxDyn.truthType
HLT_CombinedMuonFeatureContainer
HLT_MuonFeatureContainer
HLT_MuonFeatureDetailsContainer
HLT_TrigMissingETContainer_TrigEFMissingET
HLT_TrigMuonEFInfoContainer_MuonEFInfo
HLT_TrigPassBitsCollection_passbits
HLT_TrigPassFlagsCollection_isEM
HLT_TrigPassFlagsCollection_passflags
HLT_TrigRoiDescriptorCollection_forID
HLT_TrigRoiDescriptorCollection_forID1
HLT_TrigRoiDescriptorCollection_forID2
HLT_TrigRoiDescriptorCollection_forID3
HLT_TrigRoiDescriptorCollection_forMS
HLT_TrigRoiDescriptorCollection_initialRoI
HLT_TrigRoiDescriptorCollection_secondaryRoI_EF
HLT_TrigRoiDescriptorCollection_secondaryRoI_HLT
HLT_TrigRoiDescriptorCollection_secondaryRoI_L2
HLT_TrigSpacePointCountsCollection_spacepoints
HLT_TrigT2MbtsBitsContainer_T2Mbts
HLT_TrigTrackCountsCollection_trackcounts
HLT_TrigVertexCollection_TrigBeamSpotVertex
HLT_TrigVertexCollection_TrigL2SiTrackFinder_FullScan_ZF_Only
HLT_TrigVertexCountsCollection_vertexcounts
HLT_xAOD__BTagVertexContainer_BjetVertexFex
HLT_xAOD__BTagVertexContainer_BjetVertexFexAux.
HLT_xAOD__BTaggingContainer_HLTBjetFex
HLT_xAOD__BTaggingContainer_HLTBjetFexAux.
HLT_xAOD__CaloClusterContainer_TrigEFCaloCalibFex
HLT_xAOD__CaloClusterContainer_TrigEFCaloCalibFexAux.
HLT_xAOD__ElectronContainer_egamma_Electrons
HLT_xAOD__ElectronContainer_egamma_ElectronsAux.
HLT_xAOD__ElectronContainer_egamma_Iso_Electrons
HLT_xAOD__ElectronContainer_egamma_Iso_ElectronsAux.
HLT_xAOD__EmTauRoIContainer_L1TopoEM
HLT_xAOD__EmTauRoIContainer_L1TopoEMAux.
HLT_xAOD__EmTauRoIContainer_L1TopoTau
HLT_xAOD__EmTauRoIContainer_L1TopoTauAux.
HLT_xAOD__HIEventShapeContainer_HIUE
HLT_xAOD__HIEventShapeContainer_HIUEAux.
HLT_xAOD__JetContainer_EFJet
HLT_xAOD__JetContainer_EFJetAux.
HLT_xAOD__JetContainer_FarawayJet
HLT_xAOD__JetContainer_FarawayJetAux.
HLT_xAOD__JetContainer_GSCJet
HLT_xAOD__JetContainer_GSCJetAux.
HLT_xAOD__JetContainer_SplitJet
HLT_xAOD__JetContainer_SplitJetAux.
HLT_xAOD__JetContainer_SuperRoi
HLT_xAOD__JetContainer_SuperRoiAux.
HLT_xAOD__JetContainer_a10r_tcemsubjesISFS
HLT_xAOD__JetContainer_a10r_tcemsubjesISFSAux.
HLT_xAOD__JetContainer_a10tclcwsubjesFS
HLT_xAOD__JetContainer_a10tclcwsubjesFSAux.
HLT_xAOD__JetContainer_a10ttclcwjesFS
HLT_xAOD__JetContainer_a10ttclcwjesFSAux.
HLT_xAOD__JetContainer_a3ionemsubjesFS
HLT_xAOD__JetContainer_a3ionemsubjesFSAux.
HLT_xAOD__JetContainer_a4ionemsubjesFS
HLT_xAOD__JetContainer_a4ionemsubjesFSAux.
HLT_xAOD__JetContainer_a4tcemsubjesFS
HLT_xAOD__JetContainer_a4tcemsubjesFSAux.
HLT_xAOD__JetContainer_a4tcemsubjesISFS
HLT_xAOD__JetContainer_a4tcemsubjesISFSAux.
HLT_xAOD__JetRoIContainer_L1TopoJet
HLT_xAOD__JetRoIContainer_L1TopoJetAux.
HLT_xAOD__L2StandAloneMuonContainer_MuonL2SAInfoAux.
HLT_xAOD__MuonContainer_MuonEFInfo
HLT_xAOD__MuonContainer_MuonEFInfoAux.
HLT_xAOD__MuonContainer_MuonEFInfo_FullScan
HLT_xAOD__MuonContainer_MuonEFInfo_FullScanAux.
HLT_xAOD__MuonRoIContainer_L1TopoMuon
HLT_xAOD__MuonRoIContainer_L1TopoMuonAux.
HLT_xAOD__PhotonContainer_egamma_Iso_Photons
HLT_xAOD__PhotonContainer_egamma_Iso_PhotonsAux.
HLT_xAOD__PhotonContainer_egamma_Photons
HLT_xAOD__PhotonContainer_egamma_PhotonsAux.
HLT_xAOD__RoiDescriptorStore_SplitJet
HLT_xAOD__RoiDescriptorStore_SplitJetAux.
HLT_xAOD__RoiDescriptorStore_SuperRoi
HLT_xAOD__RoiDescriptorStore_SuperRoiAux.
HLT_xAOD__RoiDescriptorStore_forID
HLT_xAOD__RoiDescriptorStore_forID1
HLT_xAOD__RoiDescriptorStore_forID1Aux.
HLT_xAOD__RoiDescriptorStore_forID2
HLT_xAOD__RoiDescriptorStore_forID2Aux.
HLT_xAOD__RoiDescriptorStore_forID3
HLT_xAOD__RoiDescriptorStore_forID3Aux.
HLT_xAOD__RoiDescriptorStore_forIDAux.
HLT_xAOD__RoiDescriptorStore_forMS
HLT_xAOD__RoiDescriptorStore_forMSAux.
HLT_xAOD__RoiDescriptorStore_initialRoI
HLT_xAOD__RoiDescriptorStore_initialRoIAux.
HLT_xAOD__RoiDescriptorStore_secondaryRoI_EF
HLT_xAOD__RoiDescriptorStore_secondaryRoI_EFAux.
HLT_xAOD__RoiDescriptorStore_secondaryRoI_HLT
HLT_xAOD__RoiDescriptorStore_secondaryRoI_HLTAux.
HLT_xAOD__RoiDescriptorStore_secondaryRoI_L2
HLT_xAOD__RoiDescriptorStore_secondaryRoI_L2Aux.
HLT_xAOD__TauJetContainer_TrigTauRecMerged
HLT_xAOD__TauJetContainer_TrigTauRecMergedAux.
HLT_xAOD__TauJetContainer_TrigTauRecPreselection
HLT_xAOD__TauJetContainer_TrigTauRecPreselectionAux.
HLT_xAOD__TrigBphysContainer_EFBMuMuFex
HLT_xAOD__TrigBphysContainer_EFBMuMuFexAux.
HLT_xAOD__TrigBphysContainer_EFBMuMuXFex
HLT_xAOD__TrigBphysContainer_EFBMuMuXFexAux.
HLT_xAOD__TrigBphysContainer_EFBMuMuXFex_X
HLT_xAOD__TrigBphysContainer_EFBMuMuXFex_XAux.
HLT_xAOD__TrigBphysContainer_EFDsPhiPiFex
HLT_xAOD__TrigBphysContainer_EFDsPhiPiFexAux.
HLT_xAOD__TrigBphysContainer_EFMuPairs
HLT_xAOD__TrigBphysContainer_EFMuPairsAux.
HLT_xAOD__TrigBphysContainer_EFMultiMuFex
HLT_xAOD__TrigBphysContainer_EFMultiMuFexAux.
HLT_xAOD__TrigBphysContainer_EFTrackMass
HLT_xAOD__TrigBphysContainer_EFTrackMassAux.
HLT_xAOD__TrigBphysContainer_L2BMuMuFex
HLT_xAOD__TrigBphysContainer_L2BMuMuFexAux.
HLT_xAOD__TrigBphysContainer_L2BMuMuXFex
HLT_xAOD__TrigBphysContainer_L2BMuMuXFexAux.
HLT_xAOD__TrigBphysContainer_L2DiMuXFex
HLT_xAOD__TrigBphysContainer_L2DiMuXFexAux.
HLT_xAOD__TrigBphysContainer_L2DsPhiPiFexDs
HLT_xAOD__TrigBphysContainer_L2DsPhiPiFexDsAux.
HLT_xAOD__TrigBphysContainer_L2DsPhiPiFexPhi
HLT_xAOD__TrigBphysContainer_L2DsPhiPiFexPhiAux.
HLT_xAOD__TrigBphysContainer_L2JpsieeFex
HLT_xAOD__TrigBphysContainer_L2JpsieeFexAux.
HLT_xAOD__TrigBphysContainer_L2MultiMuFex
HLT_xAOD__TrigBphysContainer_L2MultiMuFexAux.
HLT_xAOD__TrigBphysContainer_L2TrackMass
HLT_xAOD__TrigBphysContainer_L2TrackMassAux.
HLT_xAOD__TrigCompositeContainer_ExpressInfo_HLT
HLT_xAOD__TrigCompositeContainer_ExpressInfo_HLTAux.
HLT_xAOD__TrigCompositeContainer_L1TopoComposite
HLT_xAOD__TrigCompositeContainer_L1TopoCompositeAux.
HLT_xAOD__TrigCompositeContainer_L1TopoMET
HLT_xAOD__TrigCompositeContainer_L1TopoMETAux.
HLT_xAOD__TrigCompositeContainer_MuonRoICluster
HLT_xAOD__TrigCompositeContainer_MuonRoIClusterAux.
HLT_xAOD__TrigCompositeContainer_TrigEFDielectronMassFex
HLT_xAOD__TrigCompositeContainer_TrigEFDielectronMassFexAux.
HLT_xAOD__TrigMissingETContainer_TrigEFMissingET
HLT_xAOD__TrigMissingETContainer_TrigEFMissingETAux.
HLT_xAOD__TrigMissingETContainer_TrigEFMissingET_mht
HLT_xAOD__TrigMissingETContainer_TrigEFMissingET_mhtAux.
HLT_xAOD__TrigMissingETContainer_TrigEFMissingET_topocl_PUC
HLT_xAOD__TrigMissingETContainer_TrigEFMissingET_topocl_PUCAux.
HLT_xAOD__TrigPassBitsContainer_passbits
HLT_xAOD__TrigPassBitsContainer_passbitsAux.
HLT_xAOD__TrigSpacePointCountsContainer_spacepoints
HLT_xAOD__TrigSpacePointCountsContainer_spacepointsAux.
HLT_xAOD__TrigT2MbtsBitsContainer_T2Mbts
HLT_xAOD__TrigT2MbtsBitsContainer_T2MbtsAux.
HLT_xAOD__TrigT2ZdcSignalsContainer_zdcsignals
HLT_xAOD__TrigT2ZdcSignalsContainer_zdcsignalsAux.
HLT_xAOD__TrigTrackCountsContainer_trackcounts
HLT_xAOD__TrigTrackCountsContainer_trackcountsAux.
HLT_xAOD__TrigVertexCountsContainer_vertexcounts
HLT_xAOD__TrigVertexCountsContainer_vertexcountsAux.
HLT_xAOD__VertexContainer_BjetSecondaryVertexFex
HLT_xAOD__VertexContainer_BjetSecondaryVertexFexAux.
HLT_xAOD__VertexContainer_EFHistoPrmVtx
HLT_xAOD__VertexContainer_EFHistoPrmVtxAux.
HLT_xAOD__VertexContainer_SecondaryVertex
HLT_xAOD__VertexContainer_SecondaryVertexAux.
HLT_xAOD__VertexContainer_xPrimVx
HLT_xAOD__VertexContainer_xPrimVxAux.
InDetDisappearingTrackParticles
InDetDisappearingTrackParticlesAux.
InDetDisappearingTrackParticlesAuxDyn.TRTdEdx
InDetDisappearingTrackParticlesAuxDyn.TRTdEdxUsedHits
InDetDisappearingTrackParticlesAuxDyn.eProbabilityNN
InDetDisappearingTrackParticlesAuxDyn.nBC_meas
InDetDisappearingTrackParticlesAuxDyn.trackLink
InDetDisappearingTrackParticlesAuxDyn.truthMatchProbability
InDetDisappearingTrackParticlesAuxDyn.truthOrigin
InDetDisappearingTrackParticlesAuxDyn.truthParticleLink
InDetDisappearingTrackParticlesAuxDyn.truthType
InDetForwardTrackParticles
InDetForwardTrackParticlesAux.
InDetForwardTrackParticlesAuxDyn.TRTdEdx
InDetForwardTrackParticlesAuxDyn.TRTdEdxUsedHits
InDetForwardTrackParticlesAuxDyn.eProbabilityNN
InDetForwardTrackParticlesAuxDyn.nBC_meas
InDetForwardTrackParticlesAuxDyn.trackLink
InDetForwardTrackParticlesAuxDyn.truthMatchProbability
InDetForwardTrackParticlesAuxDyn.truthOrigin
InDetForwardTrackParticlesAuxDyn.truthParticleLink
InDetForwardTrackParticlesAuxDyn.truthType
InDetLargeD0TrackParticles
InDetLargeD0TrackParticlesAux.
InDetLargeD0TrackParticlesAuxDyn.TRTdEdx
InDetLargeD0TrackParticlesAuxDyn.TRTdEdxUsedHits
InDetLargeD0TrackParticlesAuxDyn.eProbabilityNN
InDetLargeD0TrackParticlesAuxDyn.nBC_meas
InDetLargeD0TrackParticlesAuxDyn.trackLink
InDetLargeD0TrackParticlesAuxDyn.truthMatchProbability
InDetLargeD0TrackParticlesAuxDyn.truthOrigin
InDetLargeD0TrackParticlesAuxDyn.truthParticleLink
InDetLargeD0TrackParticlesAuxDyn.truthType
InDetTrackParticles
InDetTrackParticlesAssociatedClusters
InDetTrackParticlesAssociatedClustersAux.
InDetTrackParticlesAssociatedClustersAuxDyn.CellLink
InDetTrackParticlesAssociatedClusters_links
InDetTrackParticlesAux.
InDetTrackParticlesAuxDyn.TRTdEdx
InDetTrackParticlesAuxDyn.TRTdEdxUsedHits
InDetTrackParticlesAuxDyn.eProbabilityNN
InDetTrackParticlesAuxDyn.nBC_meas
InDetTrackParticlesAuxDyn.trackLink
InDetTrackParticlesAuxDyn.truthMatchProbability
InDetTrackParticlesAuxDyn.truthOrigin
InDetTrackParticlesAuxDyn.truthParticleLink
InDetTrackParticlesAuxDyn.truthType
InDetTrackParticlesClusterAssociations
InDetTrackParticlesClusterAssociationsAux.
IncompleteCutBookkeepers
IncompleteCutBookkeepersAux.
IsCalibration
IsSimulation
IsTestBeam
JetETMissChargedParticleFlowObjects
JetETMissChargedParticleFlowObjectsAux.
JetETMissChargedParticleFlowObjectsAuxDyn.FE_ElectronLinks
JetETMissChargedParticleFlowObjectsAuxDyn.FE_MuonLinks
JetETMissChargedParticleFlowObjectsAuxDyn.FE_PhotonLinks
JetETMissChargedParticleFlowObjectsAuxDyn.FE_TauLinks
JetETMissChargedParticleFlowObjectsAuxDyn.IsInDenseEnvironment
JetETMissChargedParticleFlowObjectsAuxDyn.TracksExpectedEnergyDeposit
JetETMissLCNeutralParticleFlowObjects
JetETMissLCNeutralParticleFlowObjectsAux.
JetETMissLCNeutralParticleFlowObjectsAuxDyn.eta
JetETMissLCNeutralParticleFlowObjectsAuxDyn.m
JetETMissLCNeutralParticleFlowObjectsAuxDyn.phi
JetETMissLCNeutralParticleFlowObjectsAuxDyn.pt
JetETMissNeutralParticleFlowObjects
JetETMissNeutralParticleFlowObjectsAux.
JetETMissNeutralParticleFlowObjectsAuxDyn.AVG_LAR_Q
JetETMissNeutralParticleFlowObjectsAuxDyn.AVG_TILE_Q
JetETMissNeutralParticleFlowObjectsAuxDyn.BADLARQ_FRAC
JetETMissNeutralParticleFlowObjectsAuxDyn.CENTER_LAMBDA
JetETMissNeutralParticleFlowObjectsAuxDyn.CENTER_MAG
JetETMissNeutralParticleFlowObjectsAuxDyn.EM_PROBABILITY
JetETMissNeutralParticleFlowObjectsAuxDyn.ENG_BAD_CELLS
JetETMissNeutralParticleFlowObjectsAuxDyn.ENG_POS
JetETMissNeutralParticleFlowObjectsAuxDyn.FE_ElectronLinks
JetETMissNeutralParticleFlowObjectsAuxDyn.FE_MuonLinks
JetETMissNeutralParticleFlowObjectsAuxDyn.FE_PhotonLinks
JetETMissNeutralParticleFlowObjectsAuxDyn.FE_TauLinks
JetETMissNeutralParticleFlowObjectsAuxDyn.FE_efrac_matched_muon
JetETMissNeutralParticleFlowObjectsAuxDyn.FE_nMatchedMuons
JetETMissNeutralParticleFlowObjectsAuxDyn.ISOLATION
JetETMissNeutralParticleFlowObjectsAuxDyn.LAYERENERGY_EMB1
JetETMissNeutralParticleFlowObjectsAuxDyn.LAYERENERGY_EMB2
JetETMissNeutralParticleFlowObjectsAuxDyn.LAYERENERGY_EMB3
JetETMissNeutralParticleFlowObjectsAuxDyn.LAYERENERGY_EME1
JetETMissNeutralParticleFlowObjectsAuxDyn.LAYERENERGY_EME2
JetETMissNeutralParticleFlowObjectsAuxDyn.LAYERENERGY_EME3
JetETMissNeutralParticleFlowObjectsAuxDyn.LAYERENERGY_FCAL0
JetETMissNeutralParticleFlowObjectsAuxDyn.LAYERENERGY_FCAL1
JetETMissNeutralParticleFlowObjectsAuxDyn.LAYERENERGY_FCAL2
JetETMissNeutralParticleFlowObjectsAuxDyn.LAYERENERGY_HEC0
JetETMissNeutralParticleFlowObjectsAuxDyn.LAYERENERGY_HEC1
JetETMissNeutralParticleFlowObjectsAuxDyn.LAYERENERGY_HEC2
JetETMissNeutralParticleFlowObjectsAuxDyn.LAYERENERGY_HEC3
JetETMissNeutralParticleFlowObjectsAuxDyn.LAYERENERGY_MINIFCAL0
JetETMissNeutralParticleFlowObjectsAuxDyn.LAYERENERGY_MINIFCAL1
JetETMissNeutralParticleFlowObjectsAuxDyn.LAYERENERGY_MINIFCAL2
JetETMissNeutralParticleFlowObjectsAuxDyn.LAYERENERGY_MINIFCAL3
JetETMissNeutralParticleFlowObjectsAuxDyn.LAYERENERGY_PreSamplerB
JetETMissNeutralParticleFlowObjectsAuxDyn.LAYERENERGY_PreSamplerE
JetETMissNeutralParticleFlowObjectsAuxDyn.LAYERENERGY_TILE0
JetETMissNeutralParticleFlowObjectsAuxDyn.LAYERENERGY_TileBar0
JetETMissNeutralParticleFlowObjectsAuxDyn.LAYERENERGY_TileBar1
JetETMissNeutralParticleFlowObjectsAuxDyn.LAYERENERGY_TileBar2
JetETMissNeutralParticleFlowObjectsAuxDyn.LAYERENERGY_TileExt0
JetETMissNeutralParticleFlowObjectsAuxDyn.LAYERENERGY_TileExt1
JetETMissNeutralParticleFlowObjectsAuxDyn.LAYERENERGY_TileExt2
JetETMissNeutralParticleFlowObjectsAuxDyn.LAYERENERGY_TileGap1
JetETMissNeutralParticleFlowObjectsAuxDyn.LAYERENERGY_TileGap2
JetETMissNeutralParticleFlowObjectsAuxDyn.LAYERENERGY_TileGap3
JetETMissNeutralParticleFlowObjectsAuxDyn.N_BAD_CELLS
JetETMissNeutralParticleFlowObjectsAuxDyn.SECOND_LAMBDA
JetETMissNeutralParticleFlowObjectsAuxDyn.SECOND_R
JetETMissNeutralParticleFlowObjectsAuxDyn.TIMING
LArNoisyROSummary
LRTElectrons
LRTElectronsAux.
LRTElectronsAuxDyn.LHLoose
LRTElectronsAuxDyn.LHMedium
LRTElectronsAuxDyn.LHTight
LRTElectronsAuxDyn.LHValue
LRTElectronsAuxDyn.Loose
LRTElectronsAuxDyn.Medium
LRTElectronsAuxDyn.Tight
LRTElectronsAuxDyn.ambiguityType
LRTElectronsAuxDyn.asy1
LRTElectronsAuxDyn.barys1
LRTElectronsAuxDyn.deltaEta1PearDistortion
LRTElectronsAuxDyn.e1152
LRTElectronsAuxDyn.e132
LRTElectronsAuxDyn.e233
LRTElectronsAuxDyn.e235
LRTElectronsAuxDyn.e237
LRTElectronsAuxDyn.e255
LRTElectronsAuxDyn.e2ts1
LRTElectronsAuxDyn.e2tsts1
LRTElectronsAuxDyn.ecore
LRTElectronsAuxDyn.ehad1
LRTElectronsAuxDyn.emaxs1
LRTElectronsAuxDyn.emins1
LRTElectronsAuxDyn.ethad
LRTElectronsAuxDyn.ethad1
LRTElectronsAuxDyn.pos
LRTElectronsAuxDyn.pos7
LRTElectronsAuxDyn.poscs1
LRTElectronsAuxDyn.poscs2
LRTElectronsAuxDyn.r33over37allcalo
LRTElectronsAuxDyn.truthOrigin
LRTElectronsAuxDyn.truthParticleLink
LRTElectronsAuxDyn.truthType
LRTElectronsAuxDyn.widths1
LRTElectronsAuxDyn.widths2
LRTGSFTrackParticles
LRTGSFTrackParticlesAux.
LRTGSFTrackParticlesAuxDyn.QoverPLM
LRTGSFTrackParticlesAuxDyn.TRTdEdx
LRTGSFTrackParticlesAuxDyn.TRTdEdxUsedHits
LRTGSFTrackParticlesAuxDyn.eProbabilityNN
LRTGSFTrackParticlesAuxDyn.originalTrackParticle
LRTGSFTrackParticlesAuxDyn.parameterPX
LRTGSFTrackParticlesAuxDyn.parameterPY
LRTGSFTrackParticlesAuxDyn.parameterPZ
LRTGSFTrackParticlesAuxDyn.parameterPosition
LRTGSFTrackParticlesAuxDyn.parameterX
LRTGSFTrackParticlesAuxDyn.parameterY
LRTGSFTrackParticlesAuxDyn.parameterZ
LRTGSFTrackParticlesAuxDyn.trackLink
LRTGSFTrackParticlesAuxDyn.trackParameterCovarianceMatrices
LRTGSFTrackParticlesAuxDyn.truthMatchProbability
LRTGSFTrackParticlesAuxDyn.truthOrigin
LRTGSFTrackParticlesAuxDyn.truthParticleLink
LRTGSFTrackParticlesAuxDyn.truthType
LRTegammaClusters
LRTegammaClustersAux.
LRTegammaClustersAuxDyn.BadChannelList
LRTegammaClustersAuxDyn.CellLink
LRTegammaClustersAuxDyn.ETA1CALOFRAME
LRTegammaClustersAuxDyn.ETA2CALOFRAME
LRTegammaClustersAuxDyn.ETACALOFRAME
LRTegammaClustersAuxDyn.PHI1CALOFRAME
LRTegammaClustersAuxDyn.PHI2CALOFRAME
LRTegammaClustersAuxDyn.PHICALOFRAME
LRTegammaClustersAuxDyn.constituentClusterLinks
LRTegammaClustersAuxDyn.emax_sampl
LRTegammaClustersAuxDyn.eta_sampl
LRTegammaClustersAuxDyn.etamax_sampl
LRTegammaClustersAuxDyn.phi_sampl
LRTegammaClustersAuxDyn.phimax_sampl
LRTegammaClusters_links
LRTegammaTruthParticles
LRTegammaTruthParticlesAux.
LRTegammaTruthParticlesAuxDyn.recoElectronLink
LRTegammaTruthParticlesAuxDyn.recoPhotonLink
LRTegammaTruthParticlesAuxDyn.truthOrigin
LRTegammaTruthParticlesAuxDyn.truthParticleLink
LRTegammaTruthParticlesAuxDyn.truthType
LVL1EmTauRoIs
LVL1EmTauRoIsAux.
LVL1EnergySumRoI
LVL1EnergySumRoIAux.
LVL1JetEtRoI
LVL1JetEtRoIAux.
LVL1JetRoIs
LVL1JetRoIsAux.
LVL1MuonRoIs
LVL1MuonRoIsAux.
LumiBlockN
MBTSContainer
MSDisplacedVertex
MSDisplacedVertexAux.
MSOnlyExtraPolatedMuonsLRTTrackParticles
MSOnlyExtraPolatedMuonsLRTTrackParticlesAux.
MSOnlyExtraPolatedMuonsLRTTrackParticlesAuxDyn.TRTdEdx
MSOnlyExtraPolatedMuonsLRTTrackParticlesAuxDyn.TRTdEdxUsedHits
MSOnlyExtraPolatedMuonsLRTTrackParticlesAuxDyn.alignEffectChId
MSOnlyExtraPolatedMuonsLRTTrackParticlesAuxDyn.alignEffectDeltaAngle
MSOnlyExtraPolatedMuonsLRTTrackParticlesAuxDyn.alignEffectDeltaTrans
MSOnlyExtraPolatedMuonsLRTTrackParticlesAuxDyn.alignEffectSigmaDeltaAngle
MSOnlyExtraPolatedMuonsLRTTrackParticlesAuxDyn.alignEffectSigmaDeltaTrans
MSOnlyExtraPolatedMuonsLRTTrackParticlesAuxDyn.deltaphi_0
MSOnlyExtraPolatedMuonsLRTTrackParticlesAuxDyn.deltaphi_1
MSOnlyExtraPolatedMuonsLRTTrackParticlesAuxDyn.deltatheta_0
MSOnlyExtraPolatedMuonsLRTTrackParticlesAuxDyn.deltatheta_1
MSOnlyExtraPolatedMuonsLRTTrackParticlesAuxDyn.eProbabilityNN
MSOnlyExtraPolatedMuonsLRTTrackParticlesAuxDyn.parameterPX
MSOnlyExtraPolatedMuonsLRTTrackParticlesAuxDyn.parameterPY
MSOnlyExtraPolatedMuonsLRTTrackParticlesAuxDyn.parameterPZ
MSOnlyExtraPolatedMuonsLRTTrackParticlesAuxDyn.parameterPosition
MSOnlyExtraPolatedMuonsLRTTrackParticlesAuxDyn.parameterX
MSOnlyExtraPolatedMuonsLRTTrackParticlesAuxDyn.parameterY
MSOnlyExtraPolatedMuonsLRTTrackParticlesAuxDyn.parameterZ
MSOnlyExtraPolatedMuonsLRTTrackParticlesAuxDyn.sigmadeltaphi_0
MSOnlyExtraPolatedMuonsLRTTrackParticlesAuxDyn.sigmadeltaphi_1
MSOnlyExtraPolatedMuonsLRTTrackParticlesAuxDyn.sigmadeltatheta_0
MSOnlyExtraPolatedMuonsLRTTrackParticlesAuxDyn.sigmadeltatheta_1
MSOnlyExtraPolatedMuonsLRTTrackParticlesAuxDyn.trackLink
MSOnlyExtraPolatedMuonsLRTTrackParticlesAuxDyn.trackParameterCovarianceMatrices
MSOnlyExtraPolatedMuonsLRTTrackParticlesAuxDyn.truthOrigin
MSOnlyExtraPolatedMuonsLRTTrackParticlesAuxDyn.truthParticleLink
MSOnlyExtraPolatedMuonsLRTTrackParticlesAuxDyn.truthType
MSOnlyExtrapolatedMuonTrackParticles
MSOnlyExtrapolatedMuonTrackParticlesAux.
MSOnlyExtrapolatedMuonTrackParticlesAuxDyn.TRTdEdx
MSOnlyExtrapolatedMuonTrackParticlesAuxDyn.TRTdEdxUsedHits
MSOnlyExtrapolatedMuonTrackParticlesAuxDyn.alignEffectChId
MSOnlyExtrapolatedMuonTrackParticlesAuxDyn.alignEffectDeltaAngle
MSOnlyExtrapolatedMuonTrackParticlesAuxDyn.alignEffectDeltaTrans
MSOnlyExtrapolatedMuonTrackParticlesAuxDyn.alignEffectSigmaDeltaAngle
MSOnlyExtrapolatedMuonTrackParticlesAuxDyn.alignEffectSigmaDeltaTrans
MSOnlyExtrapolatedMuonTrackParticlesAuxDyn.deltaphi_0
MSOnlyExtrapolatedMuonTrackParticlesAuxDyn.deltaphi_1
MSOnlyExtrapolatedMuonTrackParticlesAuxDyn.deltatheta_0
MSOnlyExtrapolatedMuonTrackParticlesAuxDyn.deltatheta_1
MSOnlyExtrapolatedMuonTrackParticlesAuxDyn.eProbabilityNN
MSOnlyExtrapolatedMuonTrackParticlesAuxDyn.parameterPX
MSOnlyExtrapolatedMuonTrackParticlesAuxDyn.parameterPY
MSOnlyExtrapolatedMuonTrackParticlesAuxDyn.parameterPZ
MSOnlyExtrapolatedMuonTrackParticlesAuxDyn.parameterPosition
MSOnlyExtrapolatedMuonTrackParticlesAuxDyn.parameterX
MSOnlyExtrapolatedMuonTrackParticlesAuxDyn.parameterY
MSOnlyExtrapolatedMuonTrackParticlesAuxDyn.parameterZ
MSOnlyExtrapolatedMuonTrackParticlesAuxDyn.sigmadeltaphi_0
MSOnlyExtrapolatedMuonTrackParticlesAuxDyn.sigmadeltaphi_1
MSOnlyExtrapolatedMuonTrackParticlesAuxDyn.sigmadeltatheta_0
MSOnlyExtrapolatedMuonTrackParticlesAuxDyn.sigmadeltatheta_1
MSOnlyExtrapolatedMuonTrackParticlesAuxDyn.trackLink
MSOnlyExtrapolatedMuonTrackParticlesAuxDyn.trackParameterCovarianceMatrices
MSOnlyExtrapolatedMuonTrackParticlesAuxDyn.truthOrigin
MSOnlyExtrapolatedMuonTrackParticlesAuxDyn.truthParticleLink
MSOnlyExtrapolatedMuonTrackParticlesAuxDyn.truthType
MSonlyTracklets
MSonlyTrackletsAux.
McChannel
MuonClusterCollection
MuonClusterCollectionAux.
MuonClusterCollectionAuxDyn.CellLink
MuonClusterCollectionAuxDyn.constituentClusterLinks
MuonClusterCollectionAuxDyn.eta_sampl
MuonClusterCollectionAuxDyn.phi_sampl
MuonClusterCollection_links
MuonSegments
MuonSegmentsAux.
MuonSegmentsAuxDyn.clusterTime
MuonSegmentsAuxDyn.clusterTimeError
MuonSegmentsAuxDyn.clusterTimeValid
MuonSegmentsAuxDyn.muonSegment
MuonSegmentsAuxDyn.truthSegmentLink
MuonSpectrometerTrackParticles
MuonSpectrometerTrackParticlesAux.
MuonSpectrometerTrackParticlesAuxDyn.TRTdEdx
MuonSpectrometerTrackParticlesAuxDyn.TRTdEdxUsedHits
MuonSpectrometerTrackParticlesAuxDyn.eProbabilityNN
MuonSpectrometerTrackParticlesAuxDyn.parameterPX
MuonSpectrometerTrackParticlesAuxDyn.parameterPY
MuonSpectrometerTrackParticlesAuxDyn.parameterPZ
MuonSpectrometerTrackParticlesAuxDyn.parameterPosition
MuonSpectrometerTrackParticlesAuxDyn.parameterX
MuonSpectrometerTrackParticlesAuxDyn.parameterY
MuonSpectrometerTrackParticlesAuxDyn.parameterZ
MuonSpectrometerTrackParticlesAuxDyn.trackLink
MuonSpectrometerTrackParticlesAuxDyn.trackParameterCovarianceMatrices
MuonSpectrometerTrackParticlesAuxDyn.truthOrigin
MuonSpectrometerTrackParticlesAuxDyn.truthParticleLink
MuonSpectrometerTrackParticlesAuxDyn.truthType
MuonTruthParticles
MuonTruthParticlesAux.
MuonTruthParticlesAuxDyn.CaloEntryLayer_cov_extr
MuonTruthParticlesAuxDyn.CaloEntryLayer_is_extr
MuonTruthParticlesAuxDyn.CaloEntryLayer_is_matched
MuonTruthParticlesAuxDyn.CaloEntryLayer_px
MuonTruthParticlesAuxDyn.CaloEntryLayer_px_extr
MuonTruthParticlesAuxDyn.CaloEntryLayer_py
MuonTruthParticlesAuxDyn.CaloEntryLayer_py_extr
MuonTruthParticlesAuxDyn.CaloEntryLayer_pz
MuonTruthParticlesAuxDyn.CaloEntryLayer_pz_extr
MuonTruthParticlesAuxDyn.CaloEntryLayer_x
MuonTruthParticlesAuxDyn.CaloEntryLayer_x_extr
MuonTruthParticlesAuxDyn.CaloEntryLayer_y
MuonTruthParticlesAuxDyn.CaloEntryLayer_y_extr
MuonTruthParticlesAuxDyn.CaloEntryLayer_z
MuonTruthParticlesAuxDyn.CaloEntryLayer_z_extr
MuonTruthParticlesAuxDyn.MuonEntryLayer_cov_extr
MuonTruthParticlesAuxDyn.MuonEntryLayer_is_extr
MuonTruthParticlesAuxDyn.MuonEntryLayer_is_matched
MuonTruthParticlesAuxDyn.MuonEntryLayer_px
MuonTruthParticlesAuxDyn.MuonEntryLayer_px_extr
MuonTruthParticlesAuxDyn.MuonEntryLayer_py
MuonTruthParticlesAuxDyn.MuonEntryLayer_py_extr
MuonTruthParticlesAuxDyn.MuonEntryLayer_pz
MuonTruthParticlesAuxDyn.MuonEntryLayer_pz_extr
MuonTruthParticlesAuxDyn.MuonEntryLayer_x
MuonTruthParticlesAuxDyn.MuonEntryLayer_x_extr
MuonTruthParticlesAuxDyn.MuonEntryLayer_y
MuonTruthParticlesAuxDyn.MuonEntryLayer_y_extr
MuonTruthParticlesAuxDyn.MuonEntryLayer_z
MuonTruthParticlesAuxDyn.MuonEntryLayer_z_extr
MuonTruthParticlesAuxDyn.MuonExitLayer_cov_extr
MuonTruthParticlesAuxDyn.MuonExitLayer_is_extr
MuonTruthParticlesAuxDyn.MuonExitLayer_is_matched
MuonTruthParticlesAuxDyn.MuonExitLayer_px
MuonTruthParticlesAuxDyn.MuonExitLayer_px_extr
MuonTruthParticlesAuxDyn.MuonExitLayer_py
MuonTruthParticlesAuxDyn.MuonExitLayer_py_extr
MuonTruthParticlesAuxDyn.MuonExitLayer_pz
MuonTruthParticlesAuxDyn.MuonExitLayer_pz_extr
MuonTruthParticlesAuxDyn.MuonExitLayer_x
MuonTruthParticlesAuxDyn.MuonExitLayer_x_extr
MuonTruthParticlesAuxDyn.MuonExitLayer_y
MuonTruthParticlesAuxDyn.MuonExitLayer_y_extr
MuonTruthParticlesAuxDyn.MuonExitLayer_z
MuonTruthParticlesAuxDyn.MuonExitLayer_z_extr
MuonTruthParticlesAuxDyn.etaLayer1Hits
MuonTruthParticlesAuxDyn.etaLayer2Hits
MuonTruthParticlesAuxDyn.etaLayer3Hits
MuonTruthParticlesAuxDyn.etaLayer4Hits
MuonTruthParticlesAuxDyn.extendedLargeHits
MuonTruthParticlesAuxDyn.extendedSmallHits
MuonTruthParticlesAuxDyn.innerLargeHits
MuonTruthParticlesAuxDyn.innerSmallHits
MuonTruthParticlesAuxDyn.middleLargeHits
MuonTruthParticlesAuxDyn.middleSmallHits
MuonTruthParticlesAuxDyn.nphiLayers
MuonTruthParticlesAuxDyn.nprecLayers
MuonTruthParticlesAuxDyn.ntrigEtaLayers
MuonTruthParticlesAuxDyn.outerLargeHits
MuonTruthParticlesAuxDyn.outerSmallHits
MuonTruthParticlesAuxDyn.phiLayer1Hits
MuonTruthParticlesAuxDyn.phiLayer2Hits
MuonTruthParticlesAuxDyn.phiLayer3Hits
MuonTruthParticlesAuxDyn.phiLayer4Hits
MuonTruthParticlesAuxDyn.recoMuonLink
MuonTruthParticlesAuxDyn.recoMuonLinkLRT
MuonTruthParticlesAuxDyn.truthCscHits
MuonTruthParticlesAuxDyn.truthMdtHits
MuonTruthParticlesAuxDyn.truthOrigin
MuonTruthParticlesAuxDyn.truthRpcHits
MuonTruthParticlesAuxDyn.truthTgcHits
MuonTruthParticlesAuxDyn.truthType
MuonTruthSegments
MuonTruthSegmentsAux.
MuonTruthSegmentsAuxDyn.recoSegmentLink
MuonTruthSegmentsAuxDyn.truthParticleLink
Muons
MuonsAux.
MuonsAuxDyn.CT_EL_Type
MuonsAuxDyn.CT_ET_FSRCandidateEnergy
MuonsAuxDyn.ClusterInfo_deltaR
MuonsAuxDyn.ET_Core
MuonsAuxDyn.ET_EMCore
MuonsAuxDyn.ET_HECCore
MuonsAuxDyn.ET_TileCore
MuonsAuxDyn.FSR_CandidateEnergy
MuonsAuxDyn.chargedFELinks
MuonsAuxDyn.combinedTrackOutBoundsPrecisionHits
MuonsAuxDyn.d0_staco
MuonsAuxDyn.extendedClosePrecisionHits
MuonsAuxDyn.extendedOutBoundsPrecisionHits
MuonsAuxDyn.innerClosePrecisionHits
MuonsAuxDyn.innerOutBoundsPrecisionHits
MuonsAuxDyn.isEndcapGoodLayers
MuonsAuxDyn.isSmallGoodSectors
MuonsAuxDyn.middleClosePrecisionHits
MuonsAuxDyn.middleOutBoundsPrecisionHits
MuonsAuxDyn.muon_efrac_matched_FE
MuonsAuxDyn.nUnspoiledCscHits
MuonsAuxDyn.neflowisol20
MuonsAuxDyn.neflowisol30
MuonsAuxDyn.neflowisol40
MuonsAuxDyn.neflowisolCorrBitset
MuonsAuxDyn.neflowisolcoreConeEnergyCorrection
MuonsAuxDyn.neutralFELinks
MuonsAuxDyn.nphiMatchedHitsPerChamberLayer
MuonsAuxDyn.nprecMatchedHitsPerChamberLayer
MuonsAuxDyn.ntrigEtaMatchedHitsPerChamberLayer
MuonsAuxDyn.numEnergyLossPerTrack
MuonsAuxDyn.numberOfGoodPrecisionLayers
MuonsAuxDyn.outerClosePrecisionHits
MuonsAuxDyn.outerOutBoundsPrecisionHits
MuonsAuxDyn.phi0_staco
MuonsAuxDyn.ptcone20
MuonsAuxDyn.ptcone30
MuonsAuxDyn.ptcone40
MuonsAuxDyn.ptconeCorrBitset
MuonsAuxDyn.ptconecoreTrackPtrCorrection
MuonsAuxDyn.ptvarcone20
MuonsAuxDyn.ptvarcone30
MuonsAuxDyn.ptvarcone40
MuonsAuxDyn.qOverPErr_staco
MuonsAuxDyn.qOverP_staco
MuonsAuxDyn.theta_staco
MuonsAuxDyn.topoetcone20
MuonsAuxDyn.topoetcone30
MuonsAuxDyn.topoetcone40
MuonsAuxDyn.topoetconeCorrBitset
MuonsAuxDyn.topoetconecoreConeEnergyCorrection
MuonsAuxDyn.truthOrigin
MuonsAuxDyn.truthParticleLink
MuonsAuxDyn.truthType
MuonsAuxDyn.z0_staco
MuonsLRT
MuonsLRTAux.
MuonsLRTAuxDyn.CT_EL_Type
MuonsLRTAuxDyn.CT_ET_FSRCandidateEnergy
MuonsLRTAuxDyn.ET_Core
MuonsLRTAuxDyn.ET_EMCore
MuonsLRTAuxDyn.ET_HECCore
MuonsLRTAuxDyn.ET_TileCore
MuonsLRTAuxDyn.FSR_CandidateEnergy
MuonsLRTAuxDyn.combinedTrackOutBoundsPrecisionHits
MuonsLRTAuxDyn.d0_staco
MuonsLRTAuxDyn.extendedClosePrecisionHits
MuonsLRTAuxDyn.extendedOutBoundsPrecisionHits
MuonsLRTAuxDyn.innerClosePrecisionHits
MuonsLRTAuxDyn.innerOutBoundsPrecisionHits
MuonsLRTAuxDyn.isEndcapGoodLayers
MuonsLRTAuxDyn.isSmallGoodSectors
MuonsLRTAuxDyn.middleClosePrecisionHits
MuonsLRTAuxDyn.middleOutBoundsPrecisionHits
MuonsLRTAuxDyn.nUnspoiledCscHits
MuonsLRTAuxDyn.nphiMatchedHitsPerChamberLayer
MuonsLRTAuxDyn.nprecMatchedHitsPerChamberLayer
MuonsLRTAuxDyn.ntrigEtaMatchedHitsPerChamberLayer
MuonsLRTAuxDyn.numEnergyLossPerTrack
MuonsLRTAuxDyn.numberOfGoodPrecisionLayers
MuonsLRTAuxDyn.outerClosePrecisionHits
MuonsLRTAuxDyn.outerOutBoundsPrecisionHits
MuonsLRTAuxDyn.phi0_staco
MuonsLRTAuxDyn.qOverPErr_staco
MuonsLRTAuxDyn.qOverP_staco
MuonsLRTAuxDyn.theta_staco
MuonsLRTAuxDyn.truthOrigin
MuonsLRTAuxDyn.truthParticleLink
MuonsLRTAuxDyn.truthType
MuonsLRTAuxDyn.z0_staco
NCB_MuonSegments
NCB_MuonSegmentsAux.
NCB_MuonSegmentsAuxDyn.clusterTime
NCB_MuonSegmentsAuxDyn.clusterTimeError
NCB_MuonSegmentsAuxDyn.clusterTimeValid
NCB_MuonSegmentsAuxDyn.muonSegment
NeutralParticleFlowIsoCentralEventShape
NeutralParticleFlowIsoCentralEventShapeAux.
NeutralParticleFlowIsoCentralEventShapeAuxDyn.Density
NeutralParticleFlowIsoForwardEventShape
NeutralParticleFlowIsoForwardEventShapeAux.
NeutralParticleFlowIsoForwardEventShapeAuxDyn.Density
Photons
PhotonsAux.
PhotonsAuxDyn.Loose
PhotonsAuxDyn.Tight
PhotonsAuxDyn.ambiguityLink
PhotonsAuxDyn.ambiguityType
PhotonsAuxDyn.asy1
PhotonsAuxDyn.barys1
PhotonsAuxDyn.chargedFELinks
PhotonsAuxDyn.core57cellsEnergyCorrection
PhotonsAuxDyn.e1152
PhotonsAuxDyn.e132
PhotonsAuxDyn.e233
PhotonsAuxDyn.e235
PhotonsAuxDyn.e237
PhotonsAuxDyn.e255
PhotonsAuxDyn.e2ts1
PhotonsAuxDyn.e2tsts1
PhotonsAuxDyn.ecore
PhotonsAuxDyn.ehad1
PhotonsAuxDyn.emaxs1
PhotonsAuxDyn.emins1
PhotonsAuxDyn.ethad
PhotonsAuxDyn.ethad1
PhotonsAuxDyn.neutralFELinks
PhotonsAuxDyn.pos
PhotonsAuxDyn.pos7
PhotonsAuxDyn.poscs1
PhotonsAuxDyn.poscs2
PhotonsAuxDyn.ptcone20
PhotonsAuxDyn.ptcone30
PhotonsAuxDyn.r33over37allcalo
PhotonsAuxDyn.topoetcone20
PhotonsAuxDyn.topoetcone20ptCorrection
PhotonsAuxDyn.topoetcone30
PhotonsAuxDyn.topoetcone30ptCorrection
PhotonsAuxDyn.topoetcone40
PhotonsAuxDyn.topoetcone40ptCorrection
PhotonsAuxDyn.truthOrigin
PhotonsAuxDyn.truthParticleLink
PhotonsAuxDyn.truthType
PhotonsAuxDyn.widths1
PhotonsAuxDyn.widths2
PrimaryVertices
PrimaryVerticesAux.
PrimaryVerticesAuxDyn.sumPt2
RunNumber
SlowMuons
SlowMuonsAux.
SlowMuonsAuxDyn.hitEnergy
SlowMuonsAuxDyn.hitError
SlowMuonsAuxDyn.hitIdentifier
SlowMuonsAuxDyn.hitPositionX
SlowMuonsAuxDyn.hitPositionY
SlowMuonsAuxDyn.hitPositionZ
SlowMuonsAuxDyn.hitPropagationTime
SlowMuonsAuxDyn.hitShift
SlowMuonsAuxDyn.hitTOF
SlowMuonsAuxDyn.hitTechnology
StauSegments
StauSegmentsAux.
StauSegmentsAuxDyn.clusterTime
StauSegmentsAuxDyn.clusterTimeError
StauSegmentsAuxDyn.clusterTimeValid
StauSegmentsAuxDyn.muonSegment
Staus
StausAux.
StausAuxDyn.CT_EL_Type
StausAuxDyn.CT_ET_FSRCandidateEnergy
StausAuxDyn.ET_Core
StausAuxDyn.ET_EMCore
StausAuxDyn.ET_HECCore
StausAuxDyn.ET_TileCore
StausAuxDyn.FSR_CandidateEnergy
StausAuxDyn.combinedTrackOutBoundsPrecisionHits
StausAuxDyn.d0_staco
StausAuxDyn.extendedClosePrecisionHits
StausAuxDyn.extendedOutBoundsPrecisionHits
StausAuxDyn.innerClosePrecisionHits
StausAuxDyn.innerOutBoundsPrecisionHits
StausAuxDyn.isEndcapGoodLayers
StausAuxDyn.isSmallGoodSectors
StausAuxDyn.middleClosePrecisionHits
StausAuxDyn.middleOutBoundsPrecisionHits
StausAuxDyn.nUnspoiledCscHits
StausAuxDyn.nphiMatchedHitsPerChamberLayer
StausAuxDyn.nprecMatchedHitsPerChamberLayer
StausAuxDyn.ntrigEtaMatchedHitsPerChamberLayer
StausAuxDyn.numEnergyLossPerTrack
StausAuxDyn.numberOfGoodPrecisionLayers
StausAuxDyn.outerClosePrecisionHits
StausAuxDyn.outerOutBoundsPrecisionHits
StausAuxDyn.phi0_staco
StausAuxDyn.qOverPErr_staco
StausAuxDyn.qOverP_staco
StausAuxDyn.theta_staco
StausAuxDyn.truthOrigin
StausAuxDyn.truthParticleLink
StausAuxDyn.truthType
StausAuxDyn.z0_staco
StreamAOD
SuspectLumiBlocks
SuspectLumiBlocksAux.
TauFinalPi0s
TauFinalPi0sAux.
TauFinalPi0sAuxDyn.pi0PFOLinks
TauHadronicParticleFlowObjects
TauHadronicParticleFlowObjectsAux.
TauJets
TauJetsAux.
TauJetsAuxDyn.ClusterTotalEnergy
TauJetsAuxDyn.ClustersMeanCenterLambda
TauJetsAuxDyn.ClustersMeanEMProbability
TauJetsAuxDyn.ClustersMeanFirstEngDens
TauJetsAuxDyn.ClustersMeanPresamplerFrac
TauJetsAuxDyn.ClustersMeanSecondLambda
TauJetsAuxDyn.EMFRACTIONATEMSCALE_MOVEE3
TauJetsAuxDyn.EMFracFixed
TauJetsAuxDyn.GhostMuonSegmentCount
TauJetsAuxDyn.LeadClusterFrac
TauJetsAuxDyn.NNDecayMode
TauJetsAuxDyn.NNDecayModeProb_1p0n
TauJetsAuxDyn.NNDecayModeProb_1p1n
TauJetsAuxDyn.NNDecayModeProb_1pXn
TauJetsAuxDyn.NNDecayModeProb_3p0n
TauJetsAuxDyn.NNDecayModeProb_3pXn
TauJetsAuxDyn.PFOEngRelDiff
TauJetsAuxDyn.PanTau_DecayModeExtended
TauJetsAuxDyn.TAU_SEEDTRK_SECMAXSTRIPETOVERPT
TauJetsAuxDyn.UpsilonCluster
TauJetsAuxDyn.chargedFELinks
TauJetsAuxDyn.etHotShotDR1
TauJetsAuxDyn.etHotShotDR1OverPtLeadTrk
TauJetsAuxDyn.etHotShotWin
TauJetsAuxDyn.etHotShotWinOverPtLeadTrk
TauJetsAuxDyn.etaCombined
TauJetsAuxDyn.hadLeakFracFixed
TauJetsAuxDyn.mCombined
TauJetsAuxDyn.nConversionTracks
TauJetsAuxDyn.nFakeTracks
TauJetsAuxDyn.nModifiedIsolationTracks
TauJetsAuxDyn.neutralFELinks
TauJetsAuxDyn.phiCombined
TauJetsAuxDyn.ptCombined
TauJetsAuxDyn.ptIntermediateAxisEM
TauJetsAuxDyn.rho
TauNeutralParticleFlowObjects
TauNeutralParticleFlowObjectsAux.
TauNeutralParticleFlowObjectsAuxDyn.cellBased_CENTER_LAMBDA
TauNeutralParticleFlowObjectsAuxDyn.cellBased_DELTA_PHI
TauNeutralParticleFlowObjectsAuxDyn.cellBased_DELTA_THETA
TauNeutralParticleFlowObjectsAuxDyn.cellBased_EM1CoreFrac
TauNeutralParticleFlowObjectsAuxDyn.cellBased_ENG_FRAC_CORE
TauNeutralParticleFlowObjectsAuxDyn.cellBased_ENG_FRAC_EM
TauNeutralParticleFlowObjectsAuxDyn.cellBased_ENG_FRAC_MAX
TauNeutralParticleFlowObjectsAuxDyn.cellBased_FIRST_ETA
TauNeutralParticleFlowObjectsAuxDyn.cellBased_LATERAL
TauNeutralParticleFlowObjectsAuxDyn.cellBased_LONGITUDINAL
TauNeutralParticleFlowObjectsAuxDyn.cellBased_NHitsInEM1
TauNeutralParticleFlowObjectsAuxDyn.cellBased_NPosECells_EM1
TauNeutralParticleFlowObjectsAuxDyn.cellBased_NPosECells_EM2
TauNeutralParticleFlowObjectsAuxDyn.cellBased_NPosECells_PS
TauNeutralParticleFlowObjectsAuxDyn.cellBased_SECOND_ENG_DENS
TauNeutralParticleFlowObjectsAuxDyn.cellBased_SECOND_LAMBDA
TauNeutralParticleFlowObjectsAuxDyn.cellBased_SECOND_R
TauNeutralParticleFlowObjectsAuxDyn.cellBased_energy_EM1
TauNeutralParticleFlowObjectsAuxDyn.cellBased_energy_EM2
TauNeutralParticleFlowObjectsAuxDyn.cellBased_firstEtaWRTClusterPosition_EM1
TauNeutralParticleFlowObjectsAuxDyn.cellBased_firstEtaWRTClusterPosition_EM2
TauNeutralParticleFlowObjectsAuxDyn.cellBased_secondEtaWRTClusterPosition_EM1
TauNeutralParticleFlowObjectsAuxDyn.cellBased_secondEtaWRTClusterPosition_EM2
TauNeutralParticleFlowObjectsAuxDyn.nPi0Proto
TauPi0Clusters
TauPi0ClustersAux.
TauPi0ClustersAuxDyn.BadChannelList
TauPi0ClustersAuxDyn.CENTER_LAMBDA
TauPi0ClustersAuxDyn.CENTER_MAG
TauPi0ClustersAuxDyn.CENTER_X
TauPi0ClustersAuxDyn.CENTER_Y
TauPi0ClustersAuxDyn.CENTER_Z
TauPi0ClustersAuxDyn.CellLink
TauPi0ClustersAuxDyn.DELTA_ALPHA
TauPi0ClustersAuxDyn.DELTA_PHI
TauPi0ClustersAuxDyn.DELTA_THETA
TauPi0ClustersAuxDyn.DM_WEIGHT
TauPi0ClustersAuxDyn.EM_PROBABILITY
TauPi0ClustersAuxDyn.ENG_FRAC_CORE
TauPi0ClustersAuxDyn.ENG_FRAC_EM
TauPi0ClustersAuxDyn.ENG_FRAC_MAX
TauPi0ClustersAuxDyn.FIRST_ENG_DENS
TauPi0ClustersAuxDyn.FIRST_ETA
TauPi0ClustersAuxDyn.FIRST_PHI
TauPi0ClustersAuxDyn.HAD_WEIGHT
TauPi0ClustersAuxDyn.ISOLATION
TauPi0ClustersAuxDyn.LATERAL
TauPi0ClustersAuxDyn.LONGITUDINAL
TauPi0ClustersAuxDyn.OOC_WEIGHT
TauPi0ClustersAuxDyn.SECOND_ENG_DENS
TauPi0ClustersAuxDyn.SECOND_LAMBDA
TauPi0ClustersAuxDyn.SECOND_R
TauPi0ClustersAuxDyn.emax_sampl
TauPi0ClustersAuxDyn.eta_sampl
TauPi0ClustersAuxDyn.etamax_sampl
TauPi0ClustersAuxDyn.phi_sampl
TauPi0ClustersAuxDyn.phimax_sampl
TauPi0Clusters_links
TauSecondaryVertices
TauSecondaryVerticesAux.
TauShotClusters
TauShotClustersAux.
TauShotClustersAuxDyn.CellLink
TauShotClustersAuxDyn.emax_sampl
TauShotClustersAuxDyn.eta_sampl
TauShotClustersAuxDyn.etamax_sampl
TauShotClustersAuxDyn.phi_sampl
TauShotClustersAuxDyn.phimax_sampl
TauShotClusters_links
TauShotParticleFlowObjects
TauShotParticleFlowObjectsAux.
TauShotParticleFlowObjectsAuxDyn.tauShots_nCellsInEta
TauShotParticleFlowObjectsAuxDyn.tauShots_nPhotons
TauShotParticleFlowObjectsAuxDyn.tauShots_pt1
TauShotParticleFlowObjectsAuxDyn.tauShots_pt3
TauShotParticleFlowObjectsAuxDyn.tauShots_pt5
TauShotParticleFlowObjectsAuxDyn.tauShots_seedHash
TauTracks
TauTracksAux.
TauTracksAuxDyn.CaloSamplingEtaEM
TauTracksAuxDyn.CaloSamplingEtaHad
TauTracksAuxDyn.CaloSamplingPhiEM
TauTracksAuxDyn.CaloSamplingPhiHad
TauTracksAuxDyn.d0SigTJVA
TauTracksAuxDyn.d0TJVA
TauTracksAuxDyn.rnn_chargedScore
TauTracksAuxDyn.rnn_conversionScore
TauTracksAuxDyn.rnn_fakeScore
TauTracksAuxDyn.rnn_isolationScore
TauTracksAuxDyn.z0sinthetaSigTJVA
TauTracksAuxDyn.z0sinthetaTJVA
TileMuObj
Token
TopoClusterIsoCentralEventShape
TopoClusterIsoCentralEventShapeAux.
TopoClusterIsoCentralEventShapeAuxDyn.Density
TopoClusterIsoForwardEventShape
TopoClusterIsoForwardEventShapeAux.
TopoClusterIsoForwardEventShapeAuxDyn.Density
TrigConfKeys
TrigInDetTrackTruthMap
TrigNavigation
TrigNavigationAux.
TriggerMenu
TriggerMenuAux.
TruthEvents
TruthEventsAux.
TruthEventsAuxDyn.PDFID1
TruthEventsAuxDyn.PDFID2
TruthEventsAuxDyn.PDGID1
TruthEventsAuxDyn.PDGID2
TruthEventsAuxDyn.Q
TruthEventsAuxDyn.X1
TruthEventsAuxDyn.X2
TruthEventsAuxDyn.XF1
TruthEventsAuxDyn.XF2
TruthMetaData
TruthMetaDataAux.
TruthParticles
TruthParticlesAux.
TruthParticlesAuxDyn.polarizationPhi
TruthParticlesAuxDyn.polarizationTheta
TruthVertices
TruthVerticesAux.
UnAssocMuonSegments
UnAssocMuonSegmentsAux.
UnAssocMuonSegmentsAuxDyn.clusterTime
UnAssocMuonSegmentsAuxDyn.clusterTimeError
UnAssocMuonSegmentsAuxDyn.clusterTimeValid
UnAssocMuonSegmentsAuxDyn.muonSegment
_Digitization_Parameters
_GLOBAL_BField_Maps
_Generation_Parameters
_Simulation_Parameters
_TRIGGER_HLT_HltConfigKeys
_TRIGGER_HLT_Menu
_TRIGGER_HLT_PrescaleKey
_TRIGGER_HLT_Prescales
_TRIGGER_LVL1_ItemDef
_TRIGGER_LVL1_Lvl1ConfigKey
_TRIGGER_LVL1_Menu
_TRIGGER_LVL1_Prescales
_TRIGGER_LVL1_Thresholds
_TagInfo
egammaClusters
egammaClustersAux.
egammaClustersAuxDyn.BadChannelList
egammaClustersAuxDyn.CellLink
egammaClustersAuxDyn.ETA1CALOFRAME
egammaClustersAuxDyn.ETA2CALOFRAME
egammaClustersAuxDyn.ETACALOFRAME
egammaClustersAuxDyn.PHI1CALOFRAME
egammaClustersAuxDyn.PHI2CALOFRAME
egammaClustersAuxDyn.PHICALOFRAME
egammaClustersAuxDyn.constituentClusterLinks
egammaClustersAuxDyn.emax_sampl
egammaClustersAuxDyn.eta_sampl
egammaClustersAuxDyn.etamax_sampl
egammaClustersAuxDyn.phi_sampl
egammaClustersAuxDyn.phimax_sampl
egammaClusters_links
egammaTruthParticles
egammaTruthParticlesAux.
egammaTruthParticlesAuxDyn.recoElectronLink
egammaTruthParticlesAuxDyn.recoPhotonLink
egammaTruthParticlesAuxDyn.truthOrigin
egammaTruthParticlesAuxDyn.truthParticleLink
egammaTruthParticlesAuxDyn.truthType
index_ref
xTrigDecision
xTrigDecisionAux.
